\relax 
\@writefile{toc}{\contentsline {section}{\numberline {1}Analisi del Problema}{1}\protected@file@percent }
\@writefile{toc}{\contentsline {subsection}{\numberline {1.1}Considerazioni}{1}\protected@file@percent }
\@writefile{toc}{\contentsline {subparagraph}{Esempio:}{2}\protected@file@percent }
\@writefile{toc}{\contentsline {subsection}{\numberline {1.2}Schema Relazionale}{2}\protected@file@percent }
